ideas = {

	hidden_ideas = {
		ANB_boosting_army = {
			allowed = {
				always = no 
			}
			allowed_civil_war = {
				always = yes 
			}
			removal_cost = -1
			modifier = {
				political_power_cost = 0.1
			}
		}
		ANB_boosting_navy = {
			allowed = {
				always = no 
			}
			allowed_civil_war = {
				always = yes 
			}
			removal_cost = -1
			modifier = {
				political_power_cost = 0.1
			}
		}
		ANB_army_doctrine_minus_2 = {
			allowed = {
				always = no 
			}
			allowed_civil_war = {
				always = yes 
			}
			removal_cost = -1
			research_bonus = {
				land_doctrine = -0.2
			}
		}
		ANB_army_doctrine_minus_1 = {
			allowed = {
				always = no 
			}
			allowed_civil_war = {
				always = yes 
			}
			removal_cost = -1
			research_bonus = {
				land_doctrine = -0.1
			}
		}
		ANB_army_doctrine_1 = {
			allowed = {
				always = no 
			}
			allowed_civil_war = {
				always = yes 
			}
			removal_cost = -1
			research_bonus = {
				land_doctrine = 0.1
			}
			modifier = {
				political_power_cost = 0.1
			}
		}
		ANB_army_doctrine_2 = {
			allowed = {
				always = no 
			}
			allowed_civil_war = {
				always = yes 
			}
			removal_cost = -1
			research_bonus = {
				land_doctrine = 0.2
			}
			modifier = {
				political_power_cost = 0.1
			}
		}
		ANB_navy_doctrine_1 = {
			allowed = {
				always = no 
			}
			allowed_civil_war = {
				always = yes 
			}
			removal_cost = -1
			research_bonus = {
				naval_doctrine = 0.1
			}
			modifier = {
				political_power_cost = 0.1
			}
		}
		ANB_navy_doctrine_2 = {
			allowed = {
				always = no 
			}
			allowed_civil_war = {
				always = yes 
			}
			removal_cost = -1
			research_bonus = {
				naval_doctrine = 0.2
			}
			modifier = {
				political_power_cost = 0.1
			}
		}
		ANB_navy_doctrine_minus_1 = {
			allowed = {
				always = no 
			}
			allowed_civil_war = {
				always = yes 
			}
			removal_cost = -1
			research_bonus = {
				naval_doctrine = -0.1
			}
		}
		ANB_navy_doctrine_minus_2 = {
			allowed = {
				always = no 
			}
			allowed_civil_war = {
				always = yes 
			}
			removal_cost = -1
			research_bonus = {
				naval_doctrine = -0.2
			}
		}
	}

	country = {

		JAP_tora_tora_tora_idea = {

			allowed = {
				always = no
			}

			allowed_civil_war = {
				always = yes
			}
			
			removal_cost = -1

			picture = generic_navy_carrier_bonus
			
			modifier = {
				port_strike = 1
				carrier_capacity_penalty_reduction = -0.5
				sortie_efficiency = 0.5
				naval_strike_attack_factor = 0.12
				naval_strike_targetting_factor = 0.12
				naval_strike_agility_factor = 0.12
			}
		}
		spiritual_mobilization_idea = {
					
			allowed = {
				always = no
			}

			allowed_civil_war = {
				always = yes
			}
			
			removal_cost = -1

			picture = generic_manpower_bonus
			
			modifier = {
				conscription = 0.025
			}
		}

		the_long_lance = {
			allowed = {
				always = no
			}

			allowed_civil_war = {
				always = yes
			}
			
			removal_cost = -1
			
			modifier = {
				naval_torpedo_screen_penetration_factor = 0.2
			}
		}
		JAP_first_air_fleet = {

			allowed = {
				always = no
			}

			allowed_civil_war = {
				always = yes
			}
			
			removal_cost = -1

			picture = generic_navy_carrier_bonus
			
			modifier = {
				sortie_efficiency = 0.2
			}
		}
		JAP_zaibatsus = {

			allowed = {
				always = no
			}

			allowed_civil_war = {
				always = yes
			}
			
			removal_cost = -1

			picture = jap_zaibatsu
			
			modifier = {
				political_power_cost = 0.25
				trade_laws_cost_factor = 0.25
				economy_cost_factor = 0.25
				production_speed_industrial_complex_factor = 0.05
				production_speed_arms_factory_factor = 0.05
				production_speed_dockyard_factor = 0.05
				consumer_goods_factor = 0.05
			}
		}
		JAP_militarism_shogunate = {

			name = JAP_militarism

			allowed = {
				always = no
			}

			allowed_civil_war = {
				always = yes
			}
			
			removal_cost = -1

			picture = jap_militarism_shogun
			
			modifier = {
				war_support_factor = 0.3
				mobilization_laws_cost_factor = -0.35
				justify_war_goal_time = -0.2
				research_speed_factor = -0.10
				production_speed_industrial_complex_factor = -0.1
				production_speed_arms_factory_factor = 0.05
			}
		}
		JAP_militarism_showa = {

			name = JAP_militarism

			allowed = {
				always = no
			}

			allowed_civil_war = {
				always = yes
			}
			
			removal_cost = -1

			picture = jap_militarism_showa
			
			modifier = {
				war_support_factor = 0.1
				mobilization_laws_cost_factor = -0.15
				justify_war_goal_time = -0.1
				production_speed_industrial_complex_factor = 0.1
			}
		}
		JAP_interservice_rivalry_army_dominant = {
			allowed = {
				always = no
			}

			allowed_civil_war = {
				always = yes
			}
			
			removal_cost = -1

			picture = jap_interservice_rivalry_army_dominant
			
			research_bonus = {
				naval_equipment = -0.1
				naval_doctrine = -0.1
				land_doctrine = 0.05
			}
			
			modifier = {
				production_speed_arms_factory_factor = 0.1
				production_speed_dockyard_factor = -0.2
				industrial_capacity_factory = 0.1
				industrial_capacity_dockyard = -0.2
			}
		}
		JAP_interservice_rivalry_army_strengthened = {
			allowed = {
				always = no
			}

			allowed_civil_war = {
				always = yes
			}
			
			removal_cost = -1

			picture = jap_interservice_rivalry_army_strengthened
			
			modifier = {
				production_speed_arms_factory_factor = 0.05
				production_speed_dockyard_factor = -0.1
				industrial_capacity_factory = 0.05
				industrial_capacity_dockyard = -0.1
			}
		}

		JAP_interservice_rivalry_balanced = {
			allowed = {
				always = no
			}

			allowed_civil_war = {
				always = yes
			}
			
			removal_cost = -1

			picture = jap_interservice_rivalry_balanced	
		}
		
		JAP_interservice_rivalry_navy_strengthened = {
			allowed = {
				always = no
			}

			allowed_civil_war = {
				always = yes
			}
			
			removal_cost = -1

			picture = jap_interservice_rivalry_navy_strengthened
			
			modifier = {
				production_speed_arms_factory_factor = -0.1
				production_speed_dockyard_factor = 0.1
				industrial_capacity_factory = -0.05
				industrial_capacity_dockyard = 0.05
			}
		}

		JAP_interservice_rivalry_navy_dominant = {
			allowed = {
				always = no
			}

			allowed_civil_war = {
				always = yes
			}
			
			removal_cost = -1

			picture = jap_interservice_rivalry_navy_dominant
			
			research_bonus = { 
				land_doctrine = -0.1
				naval_doctrine = 0.05
			}

			modifier = {
				production_speed_arms_factory_factor = -0.2
				production_speed_dockyard_factor = 0.2
				planning_speed = -0.1
				industrial_capacity_factory = -0.05
				industrial_capacity_dockyard = 0.1
			}
		}		

		JAP_supremacy_of_technology = {
			allowed = {
				always = no
			}

			allowed_civil_war = {
				always = yes
			}
			
			removal_cost = -1

			picture = jap_supremacy_of_technology
			
			modifier = {
				research_speed_factor = 0.03
			}
		}
		JAP_superior_will = {
			allowed = {
				always = no
			}

			allowed_civil_war = {
				always = yes
			}
			
			removal_cost = -1

			picture = jap_supremacy_of_will
			
			modifier = {
				army_defence_factor = 0.05
				army_attack_factor = 0.05
				army_morale_factor = 0.1
			}
		}
		JAP_expand_the_snlf = {
			allowed = {
				always = no
			}

			allowed_civil_war = {
				always = yes
			}
			
			removal_cost = -1

			picture = generic_naval_manufacturer_1
			
			modifier = {
				special_forces_cap = 0.02
			}
		}
		JAP_last_stand = {
			allowed = {
				always = no
			}

			allowed_civil_war = {
				always = yes
			}
			
			removal_cost = -1

			picture = jap_supremacy_of_will
			
			modifier = {
				army_core_defence_factor = 0.1
			}
		}
		JAP_korean_separatism = {
			allowed = {
				always = no
			}
			allowed_civil_war = {
				always = yes
			}
			
			removal_cost = -1
			
			picture = jap_korean_separatism
			modifier = {
				stability_factor = -0.1
				political_power_gain = -0.2
			}
		}
		JAP_toseiha_kodoha_tensions = {
			allowed = {
				always = no
			}
			allowed_civil_war = {
				always = no
			}
			
			name = JAP_toseiha_kodoha_tensions
			
			removal_cost = -1
			
			picture = jap_toseiha_kodoha_tensions
			modifier = {
				stability_factor = -0.25
				war_support_factor = -0.10
				stability_weekly = -0.005
				political_power_gain = -0.10
			}
		}
		JAP_humiliation_in_manchuria = {
			allowed = {
				always = no
			}
			allowed_civil_war = {
				always = yes
			}
			
			name = JAP_humiliation_in_manchuria
			
			removal_cost = -1
			
			picture = jap_humiliation_in_manchuria
			modifier = {
				war_support_factor = -0.25
				army_morale_factor = -0.10
				army_org = -10
				authoritarianism_drift = -0.025
			}
		}
		JAP_humiliation_in_manchuria_1 = {
			allowed = {
				always = no
			}
			allowed_civil_war = {
				always = yes
			}
			
			name = JAP_humiliation_in_manchuria
			
			removal_cost = -1
			
			picture = jap_humiliation_in_manchuria
			modifier = {
				war_support_factor = -0.1
				army_morale_factor = -0.05
				army_org = -5
				authoritarianism_drift = -0.01
			}
		}
		JAP_military_government = {
			allowed = {
				always = no
			}

			allowed_civil_war = {
				always = yes
			}
			
			removal_cost = -1

			picture = jap_military_government
			
			modifier = {
				experience_gain_army = 0.05
				command_power_gain = 0.5
				conscription_factor = 0.1
				training_time_army_factor = -0.1
				justify_war_goal_time = -0.2
				research_speed_factor = -0.05
				production_speed_industrial_complex_factor = -0.1
				political_power_factor = -0.1
			}
		}
		JAP_military_purged = {
			allowed = {
				always = no
			}

			allowed_civil_war = {
				always = yes
			}
			
			removal_cost = -1
			
			name = JAP_military_purged

			picture = jap_military_government
			
			modifier = {
				army_attack_factor = -0.1
				experience_gain_army = -0.1
				experience_gain_navy = -0.1
				industrial_capacity_factory = -0.3
				industrial_capacity_dockyard = -0.3
				command_power_gain = -0.5
				conscription_factor = -0.3
				training_time_army_factor = 0.3
				max_planning = -0.5
				generate_wargoal_tension = 0.8
				#resistance_tick_auto = 1
				military_leader_cost_factor = 5
				encryption_factor = -1
				decryption_factor = -1
			}
		}
		JAP_military_purged_navy = {
			allowed = {
				always = no
			}

			allowed_civil_war = {
				always = yes
			}
			
			removal_cost = -1

			picture = jap_military_government
			
			name = JAP_military_purged
			
			modifier = {
				army_attack_factor = -0.1
				experience_gain_navy = -0.1
				industrial_capacity_dockyard = -0.3
				command_power_gain = -0.5
				conscription_factor = -0.3
				training_time_army_factor = 0.3
				max_planning = -0.5
				generate_wargoal_tension = 0.8
				#resistance_tick_auto = 1
				military_leader_cost_factor = 5
				encryption_factor = -1
				decryption_factor = -1
			}
		}
		JAP_military_purged_army = {
			allowed = {
				always = no
			}

			allowed_civil_war = {
				always = yes
			}
			
			removal_cost = -1

			picture = jap_military_government
			
			name = JAP_military_purged
			
			modifier = {
				army_attack_factor = -0.1
				experience_gain_navy = -0.1
				industrial_capacity_dockyard = -0.3
				command_power_gain = -0.5
				conscription_factor = -0.3
				training_time_army_factor = 0.3
				max_planning = -0.5
				generate_wargoal_tension = 0.8
				#resistance_tick_auto = 1
				military_leader_cost_factor = 5
				encryption_factor = -1
				decryption_factor = -1
			}
		}
		JAP_military_purged_2 = {
			allowed = {
				always = no
			}

			allowed_civil_war = {
				always = yes
			}
			
			removal_cost = -1

			picture = jap_military_government
			
			name = JAP_military_purged
			
			modifier = {
				army_attack_factor = -0.1
				command_power_gain = -0.5
				conscription_factor = -0.3
				training_time_army_factor = 0.3
				max_planning = -0.5
				generate_wargoal_tension = 0.8
				#resistance_tick_auto = 1
				military_leader_cost_factor = 5
				encryption_factor = -1
				decryption_factor = -1
			}
		}
		JAP_civilian_government_protesting = {
			allowed = {
				always = no
			}

			allowed_civil_war = {
				always = yes
			}
			
			removal_cost = -1

			picture = jap_military_government
			
			modifier = {
				stability_factor = -0.4
				political_power_factor = -0.2
				political_power_gain = -0.1
				production_speed_industrial_complex_factor = -0.3
				consumer_goods_factor = 0.2
			}
		}
		JAP_really_low_military_support = {
			allowed = {
				always = no
			}

			allowed_civil_war = {
				always = yes
			}
			
			name = JAP_low_military_support
			
			removal_cost = -1

			picture = jap_military_government
			
			modifier = {
				army_attack_factor = -0.2
				conscription_factor = -0.6
				max_planning = -1
				generate_wargoal_tension = 1
				#resistance_tick_auto = 3
				military_leader_cost_factor = 10
				encryption_factor = -1
			}
		}
		JAP_low_military_support = {
			allowed = {
				always = no
			}

			allowed_civil_war = {
				always = yes
			}
			
			name = JAP_low_military_support
			
			removal_cost = -1

			picture = jap_military_government
			
			modifier = {
				army_attack_factor = -0.1
				conscription_factor = -0.3
				max_planning = -0.5
				generate_wargoal_tension = 0.5
				#resistance_tick_auto = 1
				military_leader_cost_factor = 2
				encryption_factor = -0.5
			}
		}
		JAP_the_final_push = {
			allowed = {
				has_civil_war = yes
			}

			allowed_civil_war = {
				always = yes
			}
			
			removal_cost = -1

			picture = jap_military_government
			
			modifier = {
				army_attack_factor = 1
				army_defence_factor = 1
				army_speed_factor = 0.5
			}
		}
		JAP_civil_war_recovery = {
			allowed = {
				always = no
			}

			allowed_civil_war = {
				always = no
			}
			
			removal_cost = -1

			picture = jap_military_government
			
			modifier = {
				production_speed_buildings_factor = -0.2
				industrial_capacity_factory = -0.2
				industrial_capacity_dockyard = -0.2
				production_factory_max_efficiency_factor = -0.1
				consumer_goods_factor = 0.1
			}
		}
		JAP_civil_war_recovery_construction_mil_10 = {
			allowed = {
				always = no
			}

			allowed_civil_war = {
				always = no
			}
			
			removal_cost = -1

			picture = jap_military_government
			
			name = JAP_civil_war_recovery_construction
			
			modifier = {
				political_power_cost = 0.1
				production_speed_arms_factory_factor = 0.1
			}
		}
		JAP_civil_war_recovery_construction_mil_20 = {
			allowed = {
				always = no
			}

			allowed_civil_war = {
				always = no
			}
			
			removal_cost = -1

			picture = jap_military_government
			
			name = JAP_civil_war_recovery_construction
			
			modifier = {
				political_power_cost = 0.2
				production_speed_arms_factory_factor = 0.2
			}
		}
		JAP_civil_war_recovery_construction_dock_10 = {
			allowed = {
				always = no
			}

			allowed_civil_war = {
				always = no
			}
			
			removal_cost = -1

			picture = jap_military_government
			
			name = JAP_civil_war_recovery_construction
			
			modifier = {
				political_power_cost = 0.1
				production_speed_dockyard_factor = 0.1
			}
		}
		JAP_civil_war_recovery_construction_dock_20 = {
			allowed = {
				always = no
			}

			allowed_civil_war = {
				always = no
			}
			
			removal_cost = -1

			picture = jap_military_government
			
			name = JAP_civil_war_recovery_construction
			
			modifier = {
				political_power_cost = 0.2
				production_speed_dockyard_factor = 0.2
			}
		}
		JAP_civil_war_recovery_construction_civ_10 = {
			allowed = {
				always = no
			}

			allowed_civil_war = {
				always = no
			}
			
			removal_cost = -1

			picture = jap_military_government
			
			name = JAP_civil_war_recovery_construction
			
			modifier = {
				political_power_cost = 0.1
				production_speed_industrial_complex_factor = 0.1
			}
		}
		JAP_civil_war_recovery_construction_civ_20 = {
			allowed = {
				always = no
			}

			allowed_civil_war = {
				always = no
			}
			
			removal_cost = -1

			picture = jap_military_government
			
			name = JAP_civil_war_recovery_construction
			
			modifier = {
				political_power_cost = 0.2
				production_speed_industrial_complex_factor = 0.2
			}
		}
		JAP_civil_war_recovery_industry_mil_10 = {
			allowed = {
				always = no
			}

			allowed_civil_war = {
				always = no
			}
			
			removal_cost = -1

			picture = jap_military_government
			
			name = JAP_civil_war_recovery_industry
			
			modifier = {
				political_power_cost = 0.1
				industrial_capacity_factory = 0.1
			}
		}
		JAP_civil_war_recovery_industry_mil_20 = {
			allowed = {
				always = no
			}

			allowed_civil_war = {
				always = no
			}
			
			removal_cost = -1

			picture = jap_military_government
			
			name = JAP_civil_war_recovery_industry
			
			modifier = {
				political_power_cost = 0.2
				industrial_capacity_factory = 0.2
			}
		}
		JAP_civil_war_recovery_industry_dock_10 = {
			allowed = {
				always = no
			}

			allowed_civil_war = {
				always = no
			}
			
			removal_cost = -1

			picture = jap_military_government
			
			name = JAP_civil_war_recovery_industry
			
			modifier = {
				political_power_cost = 0.1
				industrial_capacity_dockyard = 0.1
			}
		}
		JAP_civil_war_recovery_industry_dock_20 = {
			allowed = {
				always = no
			}

			allowed_civil_war = {
				always = no
			}
			
			removal_cost = -1

			picture = jap_military_government
			
			name = JAP_civil_war_recovery_industry
			
			modifier = {
				political_power_cost = 0.2
				industrial_capacity_dockyard = 0.2
			}
		}
		JAP_civil_war_recovery_industry_civ_10 = {
			allowed = {
				always = no
			}

			allowed_civil_war = {
				always = no
			}
			
			removal_cost = -1

			picture = jap_military_government
			
			name = JAP_civil_war_recovery_industry
			
			modifier = {
				political_power_cost = 0.1
				consumer_goods_factor = -0.05
			}
		}
		JAP_civil_war_recovery_industry_civ_20 = {
			allowed = {
				always = no
			}

			allowed_civil_war = {
				always = no
			}
			
			removal_cost = -1

			picture = jap_military_government
			
			name = JAP_civil_war_recovery_industry
			
			modifier = {
				political_power_cost = 0.2
				consumer_goods_factor = -0.1
			}
		}
		JAP_civil_war_recovery_research_mil_10 = {
			allowed = {
				always = no
			}

			allowed_civil_war = {
				always = no
			}
			
			removal_cost = -1

			picture = jap_military_government
			
			name = JAP_civil_war_recovery_research
			
			research_bonus = { armor = 0.10 infantry = 0.10 land_doctrine = 0.10 }
			modifier = { political_power_cost = 0.10 }
		}
		JAP_civil_war_recovery_research_mil_20 = {
			allowed = {
				always = no
			}

			allowed_civil_war = {
				always = no
			}
			
			removal_cost = -1

			picture = jap_military_government
			
			name = JAP_civil_war_recovery_research
			
			research_bonus = { armor = 0.20 infantry = 0.20 land_doctrine = 0.20 }
			modifier = { political_power_cost = 0.20 }
		}
		JAP_civil_war_recovery_research_dock_10 = {
			allowed = {
				always = no
			}

			allowed_civil_war = {
				always = no
			}
			
			removal_cost = -1

			picture = jap_military_government
			
			name = JAP_civil_war_recovery_research
			
			research_bonus = { naval_equipment = 0.10 naval_doctrine = 0.10 }
			modifier = { political_power_cost = 0.10 }
		}
		JAP_civil_war_recovery_research_dock_20 = {
			allowed = {
				always = no
			}

			allowed_civil_war = {
				always = no
			}
			
			removal_cost = -1

			picture = jap_military_government
			
			name = JAP_civil_war_recovery_research
			
			research_bonus = { naval_equipment = 0.20 naval_doctrine = 0.20 }
			modifier = { political_power_cost = 0.20 }
		}
		JAP_civil_war_recovery_research_civ_10 = {
			allowed = {
				always = no
			}

			allowed_civil_war = {
				always = no
			}
			
			removal_cost = -1

			picture = jap_military_government
			
			name = JAP_civil_war_recovery_research
			
			research_bonus = { industry = 0.10 electronics = 0.10 }
			modifier = { political_power_cost = 0.10 }
		}
		JAP_civil_war_recovery_research_civ_20 = {
			allowed = {
				always = no
			}

			allowed_civil_war = {
				always = no
			}
			
			removal_cost = -1

			picture = jap_military_government
			
			name = JAP_civil_war_recovery_research
			
			research_bonus = { industry = 0.20 electronics = 0.20 }
			modifier = { political_power_cost = 0.20 }
		}
		JAP_tojo_overseeing_recovery = {
			allowed = {
				always = no
			}

			allowed_civil_war = {
				always = no
			}
			
			removal_cost = -1

			picture = jap_military_government
			
			research_bonus = { armor = 0.1 infantry = 0.1 land_doctrine = 0.1 }
			modifier = {
				production_speed_arms_factory_factor = 0.1
				industrial_capacity_factory = 0.1
				war_support_factor = 0.2
			}
		}
		JAP_yamamoto_overseeing_recovery = {
			allowed = {
				always = no
			}

			allowed_civil_war = {
				always = no
			}
			
			removal_cost = -1

			picture = jap_military_government
			
			research_bonus = { naval_equipment = 0.1 naval_doctrine = 0.1 }
			modifier = {
				production_speed_dockyard_factor = 0.1
				industrial_capacity_dockyard = 0.3
			}
		}
		JAP_reijiro_overseeing_recovery = {
			allowed = {
				always = no
			}

			allowed_civil_war = {
				always = no
			}
			
			removal_cost = -1

			picture = jap_military_government
			
			research_bonus = { industry = 0.1 electronics = 0.1 }
			modifier = {
				production_speed_industrial_complex_factor = 0.1
				consumer_goods_factor = -0.05
				political_power_gain = 0.1
			}
		}
		JAP_no_recovery_plan = {
			allowed = {
				always = no
			}

			allowed_civil_war = {
				always = no
			}
			
			removal_cost = -1

			picture = jap_military_government
			
			name = JAP_civil_war_recovery_research
			modifier = { 
				research_speed_factor = -0.05
				political_power_gain = 0.2    				# I hope the extra pp was worth ruining your own country.
				consumer_goods_factor = 0.2
				industrial_capacity_dockyard = -0.1
				industrial_capacity_factory = -0.1
				production_speed_buildings_factor = -0.1
			}
		}
		JAP_army_modernisation = {
			allowed = {
				always = no
			}

			allowed_civil_war = {
				always = no
			}
			
			removal_cost = -1

			picture = jap_military_government
			
			modifier = { 
				army_morale_factor = -0.1
			}
			research_bonus = {
				land_doctrine = 0.2
				infantry_weapons = 0.2
			}
		}
		JAP_army_modernisation_artillery = {
			allowed = {
				always = no
			}

			allowed_civil_war = {
				always = no
			}
			
			removal_cost = -1

			picture = jap_military_government
			
			name = JAP_army_modernisation
			
			modifier = { 
				army_morale_factor = -0.1
			}
			research_bonus = {
				land_doctrine = 0.2
				infantry_weapons = 0.2
				artillery = 0.2
			}
		}
		JAP_army_modernisation_doctrine = {
			allowed = {
				always = no
			}

			allowed_civil_war = {
				always = no
			}
			
			removal_cost = -1

			picture = jap_military_government
			
			name = JAP_army_modernisation
			
			modifier = { 
				army_morale_factor = -0.1
			}
			research_bonus = {
				land_doctrine = 0.2
				infantry_weapons = 0.2
				artillery = 0.2
			}
			equipment_bonus = {
				artillery_equipment = {
					build_cost_ic = -0.1
					instant = yes
				}
			}
		}
		JAP_army_modernisation_new = {
			allowed = {
				always = no
			}

			allowed_civil_war = {
				always = no
			}
			
			removal_cost = -1

			picture = jap_military_government
			
			name = JAP_army_modernisation
			
			research_bonus = {
				land_doctrine = 0.2
				infantry_weapons = 0.2
				artillery = 0.2
			}
			equipment_bonus = {
				artillery_equipment = {
					build_cost_ic = -0.1
					instant = yes
				}
			}
		}
		JAP_traditional_army = {
			allowed = {
				always = no
			}

			allowed_civil_war = {
				always = no
			}
			
			removal_cost = -1

			picture = jap_military_government
			
			modifier = { 
				army_morale_factor = 0.2
			}
			research_bonus = {
				land_doctrine = -0.1
				infantry_weapons = -0.1
			}
		}
		JAP_traditional_army_cheap = {
			allowed = {
				always = no
			}

			allowed_civil_war = {
				always = no
			}
			
			removal_cost = -1

			picture = jap_military_government
			
			name = JAP_traditional_army
			
			modifier = { 
				army_morale_factor = 0.2
			}
			research_bonus = {
				land_doctrine = -0.1
				infantry_weapons = -0.1
			}
			equipment_bonus = {
				infantry_equipment = {
					build_cost_ic = -0.1
					instant = yes
				}
			}
		}
		JAP_traditional_army_doctrine = {
			allowed = {
				always = no
			}

			allowed_civil_war = {
				always = no
			}
			
			removal_cost = -1

			picture = jap_military_government
			
			name = JAP_traditional_army
			
			modifier = { 
				army_morale_factor = 0.2
			}
			research_bonus = {
				land_doctrine = -0.1
				infantry_weapons = -0.1
				cat_grand_battle_plan = 0.2
			}
			equipment_bonus = {
				infantry_equipment = {
					build_cost_ic = -0.1
					instant = yes
				}
			}
		}
		JAP_traditional_army_new = {
			allowed = {
				always = no
			}

			allowed_civil_war = {
				always = no
			}
			
			removal_cost = -1

			picture = jap_military_government
			
			name = JAP_traditional_army
			
			modifier = { 
				army_morale_factor = 0.2
			}
			research_bonus = {
				cat_grand_battle_plan = 0.2
			}
			equipment_bonus = {
				infantry_equipment = {
					build_cost_ic = -0.1
					instant = yes
				}
			}
		}
		JAP_army_expansion = {
			allowed = {
				always = no
			}

			allowed_civil_war = {
				always = no
			}
			
			removal_cost = -1

			picture = jap_military_government
			
			modifier = { 
				conscription = 0.01
			}
		}
		JAP_army_expansion_purge = {
			allowed = {
				always = no
			}

			allowed_civil_war = {
				always = no
			}
			
			removal_cost = -1

			picture = jap_military_government
			
			name = JAP_army_expansion
			
			modifier = { 
				conscription = 0.01
				planning_speed = 0.25
				max_planning = 0.25
			}
		}
		JAP_western_air_doctrine = {
			allowed = {
				always = no
			}

			allowed_civil_war = {
				always = no
			}
			
			removal_cost = -1

			picture = jap_military_government
			
			name = JAP_western_air_doctrine
			
			modifier = {
				air_strategic_bomber_attack_factor = -0.1
				air_strategic_bomber_defence_factor = -0.1
				air_strategic_bomber_bombing_factor = -0.1
			}
			
			equipment_bonus = {
				fighter_equipment = {
					air_attack = 0.1 
					air_range = 0.1
					instant = yes
				}
				cv_fighter_equipment = {
					air_attack = 0.1 
					air_range = 0.1
					instant = yes
				}	
			}
		}
		JAP_western_air_doctrine_efficient = {
			allowed = {
				always = no
			}

			allowed_civil_war = {
				always = no
			}
			
			removal_cost = -1

			picture = jap_military_government
			
			name = JAP_western_air_doctrine
			
			research_bonus = {
				air_doctrine = 0.2
			}
			
			modifier = {
				air_strategic_bomber_attack_factor = -0.1
				air_strategic_bomber_defence_factor = -0.1
				air_strategic_bomber_bombing_factor = -0.1
			}
			
			equipment_bonus = {
				fighter_equipment = {
					air_attack = 0.1 
					air_range = 0.1
					reliability = 0.2
					instant = yes
				}
				cv_fighter_equipment = {
					air_attack = 0.1 
					air_range = 0.1
					reliability = 0.2
					instant = yes
				}	
			}
		}
		JAP_western_air_doctrine_new = {
			allowed = {
				always = no
			}

			allowed_civil_war = {
				always = no
			}
			
			removal_cost = -1

			picture = jap_military_government
			
			name = JAP_western_air_doctrine
			
			research_bonus = {
				air_doctrine = 0.2
			}
			
			equipment_bonus = {
				fighter_equipment = {
					air_attack = 0.1 
					air_range = 0.1
					reliability = 0.2
					instant = yes
				}
				cv_fighter_equipment = {
					air_attack = 0.1 
					air_range = 0.1
					reliability = 0.2
					instant = yes
				}
			}
		}
		JAP_our_air_doctrine = {
			allowed = {
				always = no
			}

			allowed_civil_war = {
				always = no
			}
			
			removal_cost = -1

			picture = jap_military_government
			
			name = JAP_our_air_doctrine
			
			modifier = {
				air_strategic_bomber_attack_factor = 0.1
				air_strategic_bomber_defence_factor = 0.1
				air_strategic_bomber_bombing_factor = 0.1
			}
			
			equipment_bonus = {
				fighter_equipment = {
					air_attack = -0.1 
					air_range = -0.1
					instant = yes
				}
				cv_fighter_equipment = {
					air_attack = -0.1 
					air_range = -0.1
					instant = yes
				}	
			}
		}
		JAP_our_air_doctrine_large = {
			allowed = {
				always = no
			}

			allowed_civil_war = {
				always = no
			}
			
			removal_cost = -1

			picture = jap_military_government
			
			name = JAP_our_air_doctrine
			
			modifier = {
				air_strategic_bomber_attack_factor = 0.1
				air_strategic_bomber_defence_factor = 0.1
				air_strategic_bomber_bombing_factor = 0.1
			}
			
			equipment_bonus = {
				fighter_equipment = {
					air_attack = -0.1 
					air_range = -0.1
					instant = yes
				}
				cv_fighter_equipment = {
					air_attack = -0.1 
					air_range = -0.1
					instant = yes
				}	
			}
		}
		JAP_our_air_doctrine_new = {
			allowed = {
				always = no
			}

			allowed_civil_war = {
				always = no
			}
			
			removal_cost = -1

			picture = jap_military_government
			
			name = JAP_our_air_doctrine
			
			modifier = {
				air_strategic_bomber_attack_factor = 0.1
				air_strategic_bomber_defence_factor = 0.1
				air_strategic_bomber_bombing_factor = 0.1
			}
		}
		JAP_cheap_parts = {
			allowed = {
				always = no
			}

			allowed_civil_war = {
				always = yes
			}
			
			removal_cost = -1
			
			equipment_bonus = {
				fighter_equipment = {
					instant = yes
					build_cost_ic = -0.10
				}
				cv_fighter_equipment = {
					instant = yes
					build_cost_ic = -0.10
				}
				jet_fighter_equipment = {
					instant = yes
					build_cost_ic = -0.10
				}
				cv_CAS_equipment = {
					instant = yes
					build_cost_ic = -0.10
				}
				CAS_equipment = {
					instant = yes
					build_cost_ic = -0.10
				}
				nav_bomber_equipment = {
					instant = yes
					build_cost_ic = -0.10
				}
				cv_nav_bomber_equipment = {
					instant = yes
					build_cost_ic = -0.10
				}
				tac_bomber_equipment = {
					instant = yes
					build_cost_ic = -0.10
				}
				heavy_fighter_equipment = {
					instant = yes
					build_cost_ic = -0.10
				}
				strat_bomber_equipment = {
					instant = yes
					build_cost_ic = -0.10
				}
			}		
		}
		JAP_duplicate_research_efforts_0 = {
			allowed = {
				always = no
			}
			allowed_civil_war = {
				always = yes
			}
			removal_cost = -1 
			name = JAP_duplicate_research_efforts
			research_bonus = {
				air_equipment = -0.5
				air_doctrine = -0.5
			}
		}
		JAP_duplicate_research_efforts_1 = {
			allowed = {
				always = no
			}
			allowed_civil_war = {
				always = yes
			}
			removal_cost = -1 
			name = JAP_duplicate_research_efforts
			research_bonus = {
				air_equipment = -0.45
				air_doctrine = -0.45
			}
		}
		JAP_duplicate_research_efforts_2 = {
			allowed = {
				always = no
			}
			allowed_civil_war = {
				always = yes
			}
			removal_cost = -1 
			name = JAP_duplicate_research_efforts
			research_bonus = {
				air_equipment = -0.4
				air_doctrine = -0.4
			}
		}
		JAP_duplicate_research_efforts_3 = {
			allowed = {
				always = no
			}
			allowed_civil_war = {
				always = yes
			}
			removal_cost = -1 
			name = JAP_duplicate_research_efforts
			research_bonus = {
				air_equipment = -0.35
				air_doctrine = -0.35
			}
		}
		JAP_duplicate_research_efforts_4 = {
			allowed = {
				always = no
			}
			allowed_civil_war = {
				always = yes
			}
			removal_cost = -1 
			name = JAP_duplicate_research_efforts
			research_bonus = {
				air_equipment = -0.3
				air_doctrine = -0.3
			}
		}
		JAP_duplicate_research_efforts_5 = {
			allowed = {
				always = no
			}
			allowed_civil_war = {
				always = yes
			}
			removal_cost = -1 
			name = JAP_duplicate_research_efforts
			research_bonus = {
				air_equipment = -0.25
				air_doctrine = -0.25
			}
		}
		JAP_duplicate_research_efforts_6 = {
			allowed = {
				always = no
			}
			allowed_civil_war = {
				always = yes
			}
			removal_cost = -1 
			name = JAP_duplicate_research_efforts
			research_bonus = {
				air_equipment = -0.2
				air_doctrine = -0.2
			}
		}
		JAP_duplicate_research_efforts_7 = {
			allowed = {
				always = no
			}
			allowed_civil_war = {
				always = yes
			}
			removal_cost = -1 
			name = JAP_duplicate_research_efforts
			research_bonus = {
				air_equipment = -0.15
				air_doctrine = -0.15
			}
		}
		JAP_duplicate_research_efforts_8 = {
			allowed = {
				always = no
			}
			allowed_civil_war = {
				always = yes
			}
			removal_cost = -1 
			name = JAP_duplicate_research_efforts
			research_bonus = {
				air_equipment = -0.1
				air_doctrine = -0.1
			}
		}
		JAP_duplicate_research_efforts_9 = {
			allowed = {
				always = no
			}
			allowed_civil_war = {
				always = yes
			}
			removal_cost = -1 
			name = JAP_duplicate_research_efforts
			research_bonus = {
				air_equipment = -0.05
				air_doctrine = -0.05
			}
		}
		JAP_quality_over_quantity = {
			allowed = {
				always = no
			}

			allowed_civil_war = {
				always = no
			}
			
			removal_cost = -1

			picture = jap_military_government
			
			name = JAP_quality_over_quantity
			
			modifier = {
				offence = 0.05
				defence = 0.05
			}
			
			equipment_bonus = {
				infantry_equipment = {
					build_cost_ic = 0.1
					instant = yes
				}
			}
		}
		JAP_quality_over_quantity_durable = {
			allowed = {
				always = no
			}

			allowed_civil_war = {
				always = no
			}
			
			removal_cost = -1

			picture = jap_military_government
			
			name = JAP_quality_over_quantity
			
			modifier = {
				offence = 0.05
				defence = 0.05
			}
			
			equipment_bonus = {
				infantry_equipment = {
					build_cost_ic = 0.1
					reliability = 0.3
					instant = yes
				}
			}
		}
		JAP_quality_over_quantity_regulation = {
			allowed = {
				always = no
			}

			allowed_civil_war = {
				always = no
			}
			
			removal_cost = -1

			picture = jap_military_government
			
			name = JAP_quality_over_quantity
			
			modifier = {
				offence = 0.05
				defence = 0.05
				industrial_capacity_factory = 0.05
			}
			
			equipment_bonus = {
				infantry_equipment = {
					build_cost_ic = 0.1
					reliability = 0.3
					instant = yes
				}
			}
		}
		JAP_quality_over_quantity_new = {
			allowed = {
				always = no
			}

			allowed_civil_war = {
				always = no
			}
			
			removal_cost = -1

			picture = jap_military_government
			
			name = JAP_quality_over_quantity
			
			modifier = {
				offence = 0.05
				defence = 0.05
				industrial_capacity_factory = 0.05
			}
			
			equipment_bonus = {
				infantry_equipment = {
					reliability = 0.3
					instant = yes
				}
			}
		}
		JAP_quantity_over_quality = {
			allowed = {
				always = no
			}

			allowed_civil_war = {
				always = no
			}
			
			removal_cost = -1

			picture = jap_military_government
			
			name = JAP_quantity_over_quality
			
			equipment_bonus = {
				infantry_equipment = {
					build_cost_ic = -0.1
					instant = yes
				}
			}
		}
		JAP_quantity_over_quality_more_gun = {
			allowed = {
				always = no
			}

			allowed_civil_war = {
				always = no
			}
			
			removal_cost = -1

			picture = jap_military_government
			
			name = JAP_quantity_over_quality
			
			equipment_bonus = {
				infantry_equipment = {
					build_cost_ic = -0.2
					instant = yes
				}
			}
		}
		JAP_quantity_over_quality_artillery = {
			allowed = {
				always = no
			}

			allowed_civil_war = {
				always = no
			}
			
			removal_cost = -1

			picture = jap_military_government
			
			name = JAP_quantity_over_quality
			
			equipment_bonus = {
				infantry_equipment = {
					build_cost_ic = -0.2
					instant = yes
				}
				artillery_equipment = {
					build_cost_ic = -0.1
					instant = yes
				}
			}
		}
		JAP_quantity_over_quality_new = {
			allowed = {
				always = no
			}

			allowed_civil_war = {
				always = no
			}
			
			removal_cost = -1

			picture = jap_military_government
			
			name = JAP_quantity_over_quality
			
			modifier = {
				offence = 0.05
				defence = 0.05
			}
			
			equipment_bonus = {
				infantry_equipment = {
					build_cost_ic = -0.2
					instant = yes
				}
				artillery_equipment = {
					build_cost_ic = -0.1
					instant = yes
				}
			}
		}
 		JAP_kantai_kessen = {
			allowed = {
				always = no
			}

			allowed_civil_war = {
				always = no
			}
			
			removal_cost = -1

			picture = jap_military_government
			
			modifier = {
				navy_submarine_attack_factor = 0.4
                navy_capital_ship_attack_factor = -0.2
			}
            research_bonus = {
                cat_trade_interdiction = 0.2
            }
		}
		JAP_balanced_doctrine_idea = {
			allowed = {
				always = no
			}

			allowed_civil_war = {
				always = no
			}
			
			removal_cost = -1

			picture = jap_military_government
			
			modifier = {
				navy_submarine_attack_factor = 0.3
                navy_capital_ship_attack_factor = 0.3
			}
		}
		JAP_balanced_doctrine_tech = {
			allowed = {
				always = no
			}

			allowed_civil_war = {
				always = no
			}
			
			removal_cost = -1

			picture = jap_military_government
            
            name = JAP_balanced_doctrine_idea
			
			modifier = {
				navy_submarine_attack_factor = 0.3
                navy_capital_ship_attack_factor = 0.3
                research_speed_factor = 0.05
			}
		}
		JAP_battleship_doctrine = {
			allowed = {
				always = no
			}

			allowed_civil_war = {
				always = no
			}
			
			removal_cost = -1

			picture = jap_military_government
			
			modifier = {
				navy_submarine_attack_factor = -0.2
                navy_capital_ship_attack_factor = 0.4
			}
            research_bonus = {
                cat_fleet_in_being = 0.2
            }
		}
		JAP_battleship_doctrine_tech = {
			allowed = {
				always = no
			}

			allowed_civil_war = {
				always = no
			}
			
			removal_cost = -1

			picture = jap_military_government
            
            name = JAP_battleship_doctrine
			
			modifier = {
				navy_submarine_attack_factor = -0.2
                navy_capital_ship_attack_factor = 0.4
                research_speed_factor = 0.05
			}
            research_bonus = {
                cat_fleet_in_being = 0.2
            }
		}
		JAP_two_birds_with_one_stone = {
			allowed = {
				always = no
			}

			allowed_civil_war = {
				always = no
			}
			
			removal_cost = -1

			picture = jap_military_government
			
			targeted_modifier = {
                tag = KOR
                attack_bonus_against = 0.15
            }
			targeted_modifier = {
                tag = PRC
                attack_bonus_against = 0.15
            }
		}
		JAP_light_tank_tactics = {
			allowed = {
				always = no
			}

			allowed_civil_war = {
				always = no
			}
			
			removal_cost = -1

			picture = jap_military_government
			
			equipment_bonus = {
				light_tank_equipment = {
					instant = yes
					maximum_speed = 0.1
					build_cost_ic = -0.1
					hard_attack = 0.1
				}
            }
		}
	}
	
	
	political_advisor = {

		JAP_mitsumasa_yonai = {
			
			picture = generic_political_advisor_asia_2
			
			allowed = {
				original_tag = JAP
			}
			
			traits = { silent_workhorse }
		}

		JAP_hiroshi_oshima = {
			
			picture = generic_political_advisor_asia_1
			
			allowed = {
				original_tag = JAP
			}
			
			traits = { prince_of_terror }

			ai_will_do = {
				factor = 0.3
			}
		}

		JAP_chiune_sugihara = {
			
			picture = generic_political_advisor_asia_3
			
			allowed = {
				original_tag = JAP
			}
			
			traits = { compassionate_gentleman }
		}

		takuo_godo = {

			picture = takuo_godo

			allowed = {
				original_tag = JAP
			}

			traits = { war_industrialist }

			ai_will_do = {
				factor = 3
			}
		}
	}
		
	# MILITARY
	army_chief = {
		
		kanin_kotohito = {
			
			
			allowed = {
				original_tag = JAP
			}
			

			
			traits = { army_chief_offensive_1 }
			
			ai_will_do = {
				factor = 1
			}
		}
		
		hajime_sugiyama = {
			
			
			allowed = {
				original_tag = JAP
			}
			
			available = {
				has_completed_focus = JAP_army_expansion
			}
			
			traits = { army_chief_drill_3 }
			
			ai_will_do = {
				factor = 1
			}
		}
		
		hideki_tojo = {
			
			
			allowed = {
				original_tag = JAP
			}
			

			
			traits = { army_chief_morale_2 }
			
			ai_will_do = {
				factor = 1
			}
		}
	}
	navy_chief = {
		
		
		
		fushimi_hiroyasu = {
			
			
			allowed = {
				original_tag = JAP
			}
			

			
			traits = { navy_chief_naval_aviation_2 }
			
			ai_will_do = {
				factor = 0.2
			}
		}
		
		osami_nagano = {
			
			
			allowed = {
				original_tag = JAP
			}
			

			
			traits = { navy_chief_commerce_raiding_1 }
			
			ai_will_do = {
				factor = 0.2
			}
		}
		
		shigetaro_shimada = {
			
			
			allowed = {
				original_tag = JAP
			}
			

			
			traits = { navy_chief_decisive_battle_2 }
			
			ai_will_do = {
				factor = 0.2
			}
		}
	}
	air_chief = {
		
		
		torashiro_kawabe = {
			
			
			allowed = {
				original_tag = JAP
			}
			

			
			traits = { air_chief_night_operations_1 }
			
			ai_will_do = {
				factor = 1
			}
		}
		
		korechika_anami = {
			
			
			allowed = {
				original_tag = JAP
			}
			

			
			traits = { air_chief_ground_support_1 }
			
			ai_will_do = {
				factor = 1
			}
		}
		
		kenji_doihara = {
			
			
			allowed = {
				original_tag = JAP
			}
			

			
			traits = { air_chief_all_weather_1 }
			
			ai_will_do = {
				factor = 1
			}
		}
	}	
	
	
	high_command = {
		
		hitoshi_imamura = {
			
			
			allowed = {
				original_tag = JAP
			}
			

			
			traits = { army_logistics_2 }
			
			ai_will_do = {
				factor = 3
			}
		}
		
		yasuji_okamura = {
			
			
			allowed = {
				original_tag = JAP
			}
			

			
			traits = { army_infantry_2 }
			
			ai_will_do = {
				factor = 3
				modifier = {
					factor = 3
					NOT = {
						JAP = { has_war_with = USA }
					}
				}
			}
		}
		
		shunroku_hata = {
			
			
			allowed = {
				original_tag = JAP
			}
			

			
			traits = { army_concealment_2 }
			
			ai_will_do = {
				factor = 1
			}
		}	
		
		mitsuo_fuchida = {
			
			
			allowed = {
				original_tag = JAP
			}
			

			
			traits = { air_tactical_bombing_2 }
			
			ai_will_do = {
				factor = 1
			}
		}
		
		nishizo_tsukahara = {
			
			
			allowed = {
				original_tag = JAP
			}
			

			
			traits = { air_naval_strike_1 }
			
			ai_will_do = {
				factor = 1
			}
		}
		
		tateo_kato = {
			
			
			allowed = {
				original_tag = JAP
			}
			

			
			traits = { air_air_combat_training_3 }
			
			ai_will_do = {
				factor = 0.8
			}
		}	
		
		soemu_toyoda = {
			
			
			allowed = {
				original_tag = JAP
			}
			

			
			traits = { navy_capital_ship_1 }
			
			ai_will_do = {
				factor = 1
			}
		}
		
		matome_ugaki = {
			
			
			allowed = {
				original_tag = JAP
			}
			

			
			traits = { navy_naval_air_defense_2 }
			
			ai_will_do = {
				factor = 1
			}
		}
		
		chuichi_nagumo = {
			
			
			allowed = {
				original_tag = JAP
			}
			

			
			traits = { navy_carrier_2 }
			
			ai_will_do = {
				factor = 1
			}
		}
	}
		
	# TECHNOLOGY
	naval_manufacturer = {
		
		designer = yes
		
		kure_naval_arsenal = {
			
			
			allowed = {
				original_tag = JAP
			}

			available = {
				#has_completed_focus = JAP_supremacy_of_the_battlefleet
			}

			cost = 75
						
			research_bonus = {
				naval_equipment = 0.15
			}
			
			traits = { battlefleet_designer } # built Yamato

		}
		
		yokosuka_naval_arsenal = {
						
			allowed = {
				original_tag = JAP
			}
			
			research_bonus = {
				naval_equipment = 0.15
			}
			
			traits = { pacific_fleet_naval_manufacturer } #built best CVs

			equipment_bonus = {
				# 
			}
		}
		
		maizuru_naval_arsenal = {
						
			allowed = {
				original_tag = JAP
			}
				
			research_bonus = {
				naval_equipment = 0.15
			}
			
			traits = { convoy_escort_naval_manufacturer } #destroyer R&D

			equipment_bonus = {
				# 
			}
		}
		
		sasebo_naval_arsenal = {
			
			allowed = {
				original_tag = JAP
			}
			
			research_bonus = {
				naval_equipment = 0.15
			}
			
			traits = { coastal_defence_naval_manufacturer } #used for many repairs and conversions
			
			equipment_bonus = {
				
			}
		}	
	}
	
	aircraft_manufacturer = {
		
		designer = yes
		
		mitsubishi = {
						
			allowed = {
				original_tag = JAP		
			}
			
			available = {
				#has_completed_focus = JAP_agility_focus
			}
			
			research_bonus = {
				air_equipment = 0.15
			}
			
			traits = { light_aircraft_manufacturer_2 }

			modifier = {

			}
		}

		aichi = {
			
			allowed = {
				original_tag = JAP
			}

			available = {
				#has_completed_focus = JAP_range_focus
			}
						
			research_bonus = {
				air_equipment = 0.15
			}
			
			traits = { fuel_efficient_aircraft_manufacturer }
		}
		
		nakajima = {
						
			allowed = {
				original_tag = JAP
			}
			
			research_bonus = {
				air_equipment = 0.15
			}
			
			traits = { heavy_aircraft_manufacturer }

		}
		
		yokosuka = {
						
			allowed = {
				original_tag = JAP
			}
						
			research_bonus = {
				air_equipment = 0.15
			}
			
			traits = { naval_aircraft_manufacturer }
		}
	}
	
	
	industrial_concern = {
	
		kawasaki = {
			
			allowed = {
				original_tag = JAP
			}
			
			research_bonus = {
				industry = 0.15
			}
			
			traits = { industrial_concern }
		}
		
		
		sumitomo = {
						
			allowed = {
				original_tag = JAP
			}
						
			research_bonus = {
				electronics = 0.15
			}
			
			traits = { electronics_concern }
		}

		JAP_idemitsu_kosan = {
						
			picture = generic_industrial_concern_2
			
			allowed = {
				original_tag = JAP
			}
						
			research_bonus = {
				industry = 0.05
				synth_resources = 0.1
			}
			
			traits = { refinery_concern }
		}
	}
	
	materiel_manufacturer = {
			
		designer = yes
		
		tokyo_arsenal = {
			
			allowed = {
				original_tag = JAP
			}
			
			research_bonus = {
				infantry_weapons = 0.15
			}
			
			traits = { infantry_equipment_manufacturer }
		}
		
		nissan = {
						
			allowed = {
				original_tag = JAP
			}
						
			research_bonus = {
				motorized_equipment = 0.15
			}
			
			traits = { motorized_equipment_manufacturer }
		}
	}
	
	
	tank_manufacturer = {
	
		designer = yes
	
		osaka_army_arsenal = {
			
			allowed = {
				original_tag = JAP
			}
				
			research_bonus = {
				armor = 0.15
			}
			
			traits = { tank_manufacturer }
		}	
	}
	
	theorist = {
		
		tomoyuki_yamashita = {
						
			allowed = {
				original_tag = JAP
			}
			
			cost = 250
						
			research_bonus = {
				cat_grand_battle_plan = 0.15
			}
			
			traits = { grand_battle_plan_expert }
		}
		
		hisaichi_terauchi = {
						
			allowed = {
				original_tag = JAP
			}
						
			research_bonus = {
				land_doctrine = 0.10
			}
			
			traits = { military_theorist }
		}
		
		isoroku_yamamoto = {
						
			allowed = {
				original_tag = JAP
			}
			
			cost = 250
						
			research_bonus = {
				cat_base_strike = 0.15
			}
			
			traits = { naval_aviation_pioneer }
		}
		
		minoru_genda = {
						
			allowed = {
				original_tag = JAP
			}
						
			research_bonus = {
				naval_doctrine = 0.10
			}
			
			traits = { naval_theorist }
		}
		
		yoshitoshi_tokugawa = {
						
			allowed = {
				original_tag = JAP
			}
			
			cost = 250
			
			research_bonus = {
				cat_operational_integrity = 0.15
			}
			
			traits = { assault_avaition }
		}
		
		hino_kumazo = {
						
			allowed = {
				original_tag = JAP
			}	
			
			research_bonus = {
				air_doctrine = 0.10
			}
			
			traits = { air_warfare_theorist }
		}
		
		yoshio_nishina = {
			
			
			allowed = {
				original_tag = JAP
			}
			

			
			research_bonus = {
				nuclear = 0.15
			}
			
			traits = { nuclear_scientist }
		}
		
		hideo_itokawa = {
			
			
			allowed = {
				original_tag = JAP
			}
			

			
			research_bonus = {
				rocketry = 0.15
			}
			
			traits = { rocket_scientist }
		}
	}	
}