﻿division_template = {
	name = "Hohei Shidan" 			# (Square) Infantry Division - 4 infantry regiments (3k men each), 1 field artillery regiment - abstracted into infantry,
	division_names_group = JAP_INF_01
									# 1 engineering regiment, 1 recon regiment
	regiments = {
		infantry = { x = 0 y = 0 }
		infantry = { x = 0 y = 1 }
		infantry = { x = 0 y = 2 }
		infantry = { x = 1 y = 0 }
		infantry = { x = 1 y = 1 }
		infantry = { x = 1 y = 2 }
		infantry = { x = 2 y = 0 }
		infantry = { x = 2 y = 1 }
		infantry = { x = 2 y = 2 }
		infantry = { x = 3 y = 0 }
		infantry = { x = 3 y = 1 }
		infantry = { x = 3 y = 2 }
	}
	support = {
		engineer = { x = 0 y = 0 }
		recon = { x = 0 y = 1 }
	}
}
division_template = {
	name = "Dokuritsu Konsei Ryodan" 	# Independent Mixed Brigade: 5 infantry battalions (4k men total), 1 field artillery basttalion - abstracted into infantry,
	division_names_group = JAP_IMB_01
										# 1 engineering battalion
	regiments = {
		infantry = { x = 0 y = 0 }
		infantry = { x = 0 y = 1 }
		infantry = { x = 0 y = 2 }
		infantry = { x = 1 y = 0 }
		infantry = { x = 1 y = 1 }
		light_armor = { x= 2 y = 0 }
		light_armor = { x= 2 y = 1 }
	}
	support = {
		engineer = { x = 0 y = 0 }
	}
}
division_template = {
	name = "Kihei Shidan" 			# Cavalry Division - 2 Cavalry Division regiments (3k men); 1 mounted artillery regiment
	division_names_group = JAP_CAV_01
	regiments = {
		cavalry = { x = 0 y = 0 }
		cavalry = { x = 0 y = 1 }
		cavalry = { x = 0 y = 2 }
		cavalry = { x = 1 y = 0 }
		cavalry = { x = 1 y = 1 }
		cavalry = { x = 1 y = 2 }
	}
}
division_template = {
	name = "Jidousha Shidan" 			# Motorized divisions - 4 motorized infantry regiments (3k men each), 1 recon regiment, 
	division_names_group = JAP_MOT_01
										#1 engineer regiment, 1 mounted artillery regiment
	regiments = {
		motorized = { x = 0 y = 0 }
		motorized = { x = 0 y = 1 }
		motorized = { x = 0 y = 2 }
		motorized = { x = 1 y = 0 }
		motorized = { x = 1 y = 1 }
		motorized = { x = 1 y = 2 }
		motorized = { x = 2 y = 0 }
		motorized = { x = 2 y = 1 }
		motorized = { x = 2 y = 2 }
		motorized = { x = 3 y = 0 }
		motorized = { x = 3 y = 1 }
		motorized = { x = 3 y = 2 }
	}
	support = {
		artillery = { x = 0 y = 0 }
		engineer = { x = 0 y = 1 }
		recon = { x = 0 y = 2 }
	}
}
division_template = {
	name = "Rikusentai"				#This template covers SNLF divisions; historically there were roughly 5 total, with 1 being paratroopers
	division_names_group = JAP_MAR_01
	regiments = {
		marine = { x = 0 y = 0 }
		marine = { x = 0 y = 1 }
		marine = { x = 0 y = 2 }
		marine = { x = 1 y = 0 }
		marine = { x = 1 y = 1 }
		marine = { x = 1 y = 2 }
	}
	support = {
		engineer = { x = 0 y = 0 }
	}	
	priority = 2
}
division_template = {
	name = "Chuton-chi Shidan" 			# Garrison template - represents Imperial Manchukuo Army infantry divisions: 2 infantry regiments (3k men) -- militia (lowest equipment, experience)
	division_names_group = JAP_GAR_01
										# Also represents (over-sized) IJN Base Defense Unit (island, city and naval base garrisons): 2 infantry rgts (3k men), 1 field artillery rgt (abstracted), 1 engineering rgt
	regiments = {
		infantry = { x = 0 y = 0 }
		infantry = { x = 0 y = 1 }
		infantry = { x = 0 y = 2 }
		infantry = { x = 1 y = 0 }
		infantry = { x = 1 y = 1 }
		infantry = { x = 1 y = 2 }
	}
	priority = 0
}
division_template = {
	name = "Shidan" 			# Righteous Army's militias.
	division_names_group = JAP_SDN_01
	regiments = {
		infantry = { x = 0 y = 0 }
		infantry = { x = 0 y = 1 }
		infantry = { x = 0 y = 2 }
		infantry = { x = 1 y = 0 }
		infantry = { x = 1 y = 1 }
		infantry = { x = 1 y = 2 }
	}
}


##### OOB #####
units = {
	division = {
		division_name = {
			is_name_ordered = yes
			name_order = 1
		}
		location = 1067 #Kansai
		division_template = "Shidan"
		start_experience_factor = 0.3
	}
	division = {
		division_name = {
			is_name_ordered = yes
			name_order = 2
		}
		location = 4172 #Tokai
		division_template = "Shidan"
		start_experience_factor = 0.3
	}
	division = {
		division_name = {
			is_name_ordered = yes
			name_order = 3
		}
		location = 7187 #Tokai
		division_template = "Shidan"
		start_experience_factor = 0.3
	}
	division = {
		division_name = {
			is_name_ordered = yes
			name_order = 4
		}
		location = 10100 #Tokai
		division_template = "Shidan"
		start_experience_factor = 0.3
	}
	division = {
		division_name = {
			is_name_ordered = yes
			name_order = 5
		}
		location = 12072 #Kansai
		division_template = "Shidan"
		start_experience_factor = 0.3
	}
	division = {
		division_name = {
			is_name_ordered = yes
			name_order = 6
		}
		location = 1097 #South Kanto
		division_template = "Shidan"
		start_experience_factor = 0.3
	}
	division = {
		division_name = {
			is_name_ordered = yes
			name_order = 7
		}
		location = 1182 #Tokyo
		division_template = "Shidan"
		start_experience_factor = 0.3
	}
	division = {
		division_name = {
			is_name_ordered = yes
			name_order = 8
		}
		location = 1182 #Tokyo
		division_template = "Shidan"
		start_experience_factor = 0.3
	}
	division = {
		division_name = {
			is_name_ordered = yes
			name_order = 9
		}
		location = 4188 #Tokyo
		division_template = "Shidan"
		start_experience_factor = 0.3
	}
	division = {
		division_name = {
			is_name_ordered = yes
			name_order = 10
		}
		location = 10125 #Nagoya
		division_template = "Shidan"
		start_experience_factor = 0.3
	}
	division = {
		division_name = {
			is_name_ordered = yes
			name_order = 11
		}
		location = 7072 #Osaka
		division_template = "Shidan"
		start_experience_factor = 0.3
	}
	division = {
		division_name = {
			is_name_ordered = yes
			name_order = 12
		}
		location = 1092 #Hiroshima
		division_template = "Shidan"
		start_experience_factor = 0.3
	}
	division = {
		division_name = {
			is_name_ordered = yes
			name_order = 13
		}
		location = 9950 #Nagasaki
		division_template = "Shidan"
		start_experience_factor = 0.3
	}
	division = {
		division_name = {
			is_name_ordered = yes
			name_order = 14
		}
		location = 4102 #Kagoshima
		division_template = "Shidan"
		start_experience_factor = 0.3
	}
	division = {
		division_name = {
			is_name_ordered = yes
			name_order = 15
		}
		location = 7197 #Kochi
		division_template = "Shidan"
		start_experience_factor = 0.3
	}
}
