FRA_vichy_france = {

	FRA_scuttle_the_fleet = {

		icon = generic_ignite_civil_war

		available = {
			OR = { has_government = totalitarianism has_government = radical_nationalism }
			NOT = {
				GER = { divisions_in_state = { state = 21 size > 0 } }
			}
			has_country_flag = {
				flag = case_anton
				days > 2
			}
		}

		cost = 0

		ai_will_do = {
			factor = 200
		}

		visible = {
			OR = { has_government = totalitarianism has_government = radical_nationalism }
			has_country_flag = case_anton
		}

		complete_effect = {
			set_country_flag = scuttled_fleet
			destroy_ships = {
				type = ship_hull_light
				count = all
			}
			destroy_ships = {
				type = ship_hull_cruiser
				count = all
			}
			destroy_ships = {
				type = ship_hull_heavy
				count = all
			}
			destroy_ships = {
				type = ship_hull_carrier 
				count = all
			}
			destroy_ships = {
				type = ship_hull_submarine
				count = all
			}
		}
	}

	FRA_case_anton_mission = {

		icon = generic_tank

		available = {
			is_subject = no
			has_war_with = GER
		}

		days_mission_timeout = 7
		fire_only_once = yes

		activation = {
			original_tag = FRA
			OR = { has_government = totalitarianism has_government = radical_nationalism }
			is_subject_of = GER
			has_country_flag = case_anton
		}

		complete_effect = {
			custom_effect_tooltip = FRA_case_anton_mission_tt
		}

		is_good = no

		timeout_effect = {
			transfer_navy = { target = GER }
			GER = { annex_country = { target = ROOT } }
			if = {
				limit = {
					NOT = { has_country_flag = scuttled_fleet }
				}
				GER = { news_event = { id = wtt_news.23 hours = 6 } }
			}
			if = {
				limit = {
					has_country_flag = scuttled_fleet
				}
				GER = { news_event = { id = wtt_news.24 hours = 6 } }
			}
			custom_effect_tooltip = GAME_OVER_TT
		}
	}
}