name="Red Vistula"
version="0.1"
tags={
	"Alternative History"
	"Events"
	"Gameplay"
	"Graphics"
	"National Focuses"
}
picture="thumbnail.png"
remote_file_id="1702047031"
supported_version="1.10.*"
replace_path = "common/ai_strategy_plans"
replace_path = "common/bookmarks"
replace_path = "common/decisions"
replace_path="common/decisions/categories"
replace_path = "common/ideas"
replace_path = "common/national_focus"
replace_path = "common/on_actions"
replace_path = "common/opinion_modifiers"
replace_path = "events"
replace_path = "history/countries"