
state={
	id=103
	name="STATE_103"

	history={
		owner = YUG
		victory_points = {
			3924 3 
		}
		buildings = {
			infrastructure = 5
			dockyard = 1
			industrial_complex = 2
			3924 = {
				naval_base = 3

			}
			6889 = {
				naval_base = 1

			}

		}
		add_core_of = YUG
		add_core_of = CRO
		add_core_of = VNC

	}

	provinces={
		984 3868 3924 3974 6889 11816 11901 
	}
	manpower=1148850
	buildings_max_level_factor=1.000
	state_category=large_town
}
