
state={
	id=27
	name="STATE_27" # Bourgogne
	manpower = 1370800
	
	state_category = city
	
	resources={
		aluminium=11 # was: 18
	}

	history={
		owner = FRA
		victory_points = {
			3652 5 
		}
		buildings = {
			infrastructure = 7
			industrial_complex = 2
			air_base = 2
			arms_factory = 1
		}
		add_core_of = FRA
	}

	provinces={
		648 667 680 817 3506 3652 3669 3681 9609 9625 9644 11628 
	}
}
