state=
{
	id=270
	name="STATE_270"
	manpower = 40
	state_category = enclave
	
	history=
	{
		owner = ENG
		buildings = {
			infrastructure = 3
			1280 = {
				naval_base = 1
			}
		}
	}
	provinces={
		1280
	}
}
