
state={
	id=468
	name="STATE_468"
	resources={
		aluminium=3.000
	}

	history={
		owner = CAN
		buildings = {
			infrastructure = 6
			arms_factory = 2
			industrial_complex = 1
			air_base = 3
			12149 = {
				naval_base = 6

			}

		}
		add_core_of = CAN
		victory_points = {
			4345 20 
		}
		victory_points = {
			12149 3 
		}

	}

	provinces={
		1341 1356 4345 7291 7435 9601 12149 12223 12276 
	}
	manpower=2432754
	buildings_max_level_factor=1.000
	state_category=metropolis
}
