
state={
	id=471
	name="STATE_471"

	history={
		owner = CAN
		buildings = {
			infrastructure = 3
		}
		add_core_of = CAN

	}

	provinces={
		3606 7869 7891 
	}
	manpower=27681
	buildings_max_level_factor=1.000
	state_category=wasteland
}
