
state={
	id=504
	name="STATE_504"
	
	state_category = rural

	history={
		owner = BRA
		buildings = {
			infrastructure = 3

		}
		add_core_of = BRA

	}

	provinces={
		2111 2181 5200 8189 8224 10959 12951 
	}
	manpower=229900
	buildings_max_level_factor=1.000
}
