
state={
	id=760
	name="STATE_760"

	history={
		owner = SIK
		add_core_of = SIK
		add_core_of = CHI
		add_core_of = PRC
		buildings = {
			infrastructure = 3
			arms_factory = 1

		}
		add_claim_by = TNG

	}

	provinces={
		1838 4704 4843 7732 10839 12524 12598 12671 13355 13356 13358 13359 13360 13361 13362 
	}
	manpower=700000
	buildings_max_level_factor=1.000
	state_category=rural
}
