state={
	id=784
	name="STATE_784"
	manpower = 517081
	
	state_category = rural
	
	history={
		owner = LIT
		victory_points = {
			3320 5
		}
		buildings = {
			infrastructure = 5
			industrial_complex = 1
			air_base = 5
		}
		add_core_of = LIT
	}

	provinces={
		3320 9274 9295 11342
	}
}
