
state={
	id=802
	name="STATE_802"

	history={
		victory_points = {
			6940 3 
		}
		victory_points = {
			9890 2 
		}
		owner = MAC
		buildings = {
			infrastructure = 2

		}
		add_claim_by = YUG
		add_core_of = KOS
		add_claim_by = SER
        add_core_of = MAC
	}

	provinces={
		6940 9849 9874 9890 
	}
	manpower=616000
	buildings_max_level_factor=1.000
	state_category=pastoral
}
