state={
	id=851
	name="STATE_851"
	history = {
		owner = USA
		add_core_of = USA
		buildings = {
			infrastructure = 4
		}
	}
	provinces={
		1282 1338 1619 3732 4287 6719 7462 10247 10318 12202 12221 12459 
	}
	manpower=840000
	buildings_max_level_factor=1.000
	state_category = town
}
