state={
	id=853
	name="STATE_853"
	history = {
		owner = USA
		add_core_of = USA
		buildings = {
			infrastructure = 5
		}
	}
	provinces={
		4445 7629 9675 13158 
	}
	manpower=357000
	buildings_max_level_factor=1.000
	state_category = town
}
