state={
	id=859
	name="STATE_859"
	history = {
		owner = POL
		add_core_of = POL
		buildings = {
			infrastructure = 4
		}
	}
	
	provinces={
		6321 9290 9316 
	}
	manpower=354172
	buildings_max_level_factor=1.000
	state_category = large_town
}
