state={
	id=860
	name="STATE_860"
	history = {
		owner = GER
		add_core_of = GER
		buildings = {
			infrastructure = 5
		}
	}

	provinces={
		3380 6402 11245 
	}
	manpower=337666
	buildings_max_level_factor=1.000
	state_category = town
}
