
state={
	id=886
	name="STATE_886"

	history={
		victory_points = {
			13218 1 
		}
		owner = YUG
		buildings = {
			infrastructure = 3
			industrial_complex = 1

		}
		add_core_of = YUG
		add_core_of = MNT
		add_core_of = VNC

	}

	provinces={
		13218 
	}
	manpower=1000
	buildings_max_level_factor=1.000
	state_category=town
}
