
state={
	id=888
	name="STATE_888"

	history={
		owner = JAP
		buildings = {
			infrastructure = 3
		}
		add_core_of = KOR
		victory_points = {
			6822 3
		}
		victory_points = {
			6928 3
		}
	}

	provinces={
		852 898 959 3803 3852 3860 3904 3981 6822 6922 6928 9899 11770 11878 13224 13225 
	}
	manpower=1608117
	buildings_max_level_factor=1.000
	state_category=town
}
