
state={
	id=891
	name="STATE_891"
	manpower = 221314
		provinces={ 265 3255 3525 6222 6342 
	
	}
	state_category = rural
	history={
	    add_core_of = BAL
		owner = BAL
		victory_points = {
			265 5  
		}
 
		buildings = {
			infrastructure = 4
			}
	}
}