state={
	id=98
	name="STATE_98"
	manpower = 1412100
	
	state_category = rural
	history={
		victory_points = {
			3230 5
		}
		owner = POL
		buildings = {
			infrastructure = 6
		}
		add_core_of = POL
		add_claim_by = NPO
	}

	provinces={
		548 3230 6259 6401 6567 11385 
	}
}
